[
    {
      "allowedHeaders": [
        "authorization",
        "range",
        "content-type"
      ],
      "allowedOperations": [
        "b2_download_file_by_id",
        "b2_download_file_by_name"
      ],
      "allowedOrigins": [
        "*"
      ],
      "corsRuleName": "downloadFromAnyHttpsOrigin",
      "exposeHeaders": null,
      "maxAgeSeconds": 3600
    }
]